{
    "code": 200,
    "data": {
        "list": [
            {
                "dataCollectTmsp": "2021/09/26 11:20:30",
                "metaId": "m2109133-0001",
                "edgeId": "ED-000009",
                "dataType": "json",
                "flowDirection": "inbound"
            }
        ],
        "status": {
            "totaolRecords": 25,
            "inbound": 124,
            "outBound": 20
        },
        "pagination": {
            "page": 1,
            "pageCount": 10,
            "total": 260
        }
    }
}